{
   "count": 859087,
   "next": "https://api.rawg.io/api/games?key=bf3907b002f9450c8a1ae32f7f532d03&page=2",
   "previous": null,
   "results": [
     {
       "id": 3498,
       "slug": "grand-theft-auto-v",
       "name": "Grand Theft Auto V",
       "released": "2013-09-17",
       "tba": false,
       "background_image": "https://media.rawg.io/media/games/20a/20aa03a10cda45239fe22d035c0ebe64.jpg",
       "rating": 4.47,
       "rating_top": 5,
       "ratings": [
         {
           "id": 5,
           "title": "exceptional",
           "count": 3959,
           "percent": 59.05
         },
         {
           "id": 4,
           "title": "recommended",
           "count": 2198,
           "percent": 32.78
         },
         {
           "id": 3,
           "title": "meh",
           "count": 426,
           "percent": 6.35
         },
         {
           "id": 1,
           "title": "skip",
           "count": 122,
           "percent": 1.82
         }
       ],
       "ratings_count": 6607,
       "reviews_text_count": 57,
       "added": 20197,
       "added_by_status": {
         "yet": 514,
         "owned": 11589,
         "beaten": 5714,
         "toplay": 599,
         "dropped": 1068,
         "playing": 713
       },
       "metacritic": 92,
       "playtime": 74,
       "suggestions_count": 424,
       "updated": "2023-11-13T18:59:59",
       "user_game": null,
       "reviews_count": 6705,
       "saturated_color": "0f0f0f",
       "dominant_color": "0f0f0f",
       "platforms": [
         {
           "platform": {
             "id": 187,
             "name": "PlayStation 5",
             "slug": "playstation5",
             "image": null,
             "year_end": null,
             "year_start": 2020,
             "games_count": 961,
             "image_background": "https://media.rawg.io/media/games/cd3/cd3c9c7d3e95cb1608fd6250f1b90b7a.jpg"
           },
           "released_at": "2013-09-17",
           "requirements_en": null,
           "requirements_ru": null
         },
         {
           "platform": {
             "id": 186,
             "name": "Xbox Series S/X",
             "slug": "xbox-series-x",
             "image": null,
             "year_end": null,
             "year_start": 2020,
             "games_count": 827,
             "image_background": "https://media.rawg.io/media/games/718/71891d2484a592d871e91dc826707e1c.jpg"
           },
           "released_at": "2013-09-17",
           "requirements_en": null,
           "requirements_ru": null
         },
         {
           "platform": {
             "id": 4,
             "name": "PC",
             "slug": "pc",
             "image": null,
             "year_end": null,
             "year_start": null,
             "games_count": 521690,
             "image_background": "https://media.rawg.io/media/games/736/73619bd336c894d6941d926bfd563946.jpg"
           },
           "released_at": "2013-09-17",
           "requirements_en": {
             "minimum": "Minimum:OS: Windows 10 64 Bit, Windows 8.1 64 Bit, Windows 8 64 Bit, Windows 7 64 Bit Service Pack 1, Windows Vista 64 Bit Service Pack 2* (*NVIDIA video card recommended if running Vista OS)Processor: Intel Core 2 Quad CPU Q6600 @ 2.40GHz (4 CPUs) / AMD Phenom 9850 Quad-Core Processor (4 CPUs) @ 2.5GHzMemory: 4 GB RAMGraphics: NVIDIA 9800 GT 1GB / AMD HD 4870 1GB (DX 10, 10.1, 11)Storage: 72 GB available spaceSound Card: 100% DirectX 10 compatibleAdditional Notes: Over time downloadable content and programming changes will change the system requirements for this game.  Please refer to your hardware manufacturer and www.rockstargames.com/support for current compatibility information. Some system components such as mobile chipsets, integrated, and AGP graphics cards may be incompatible. Unlisted specifications may not be supported by publisher.     Other requirements:  Installation and online play requires log-in to Rockstar Games Social Club (13+) network; internet connection required for activation, online play, and periodic entitlement verification; software installations required including Rockstar Games Social Club platform, DirectX , Chromium, and Microsoft Visual C++ 2008 sp1 Redistributable Package, and authentication software that recognizes certain hardware attributes for entitlement, digital rights management, system, and other support purposes.     SINGLE USE SERIAL CODE REGISTRATION VIA INTERNET REQUIRED; REGISTRATION IS LIMITED TO ONE ROCKSTAR GAMES SOCIAL CLUB ACCOUNT (13+) PER SERIAL CODE; ONLY ONE PC LOG-IN ALLOWED PER SOCIAL CLUB ACCOUNT AT ANY TIME; SERIAL CODE(S) ARE NON-TRANSFERABLE ONCE USED; SOCIAL CLUB ACCOUNTS ARE NON-TRANSFERABLE.  Partner Requirements:  Please check the terms of service of this site before purchasing this software.",
             "recommended": "Recommended:OS: Windows 10 64 Bit, Windows 8.1 64 Bit, Windows 8 64 Bit, Windows 7 64 Bit Service Pack 1Processor: Intel Core i5 3470 @ 3.2GHz (4 CPUs) / AMD X8 FX-8350 @ 4GHz (8 CPUs)Memory: 8 GB RAMGraphics: NVIDIA GTX 660 2GB / AMD HD 7870 2GBStorage: 72 GB available spaceSound Card: 100% DirectX 10 compatibleAdditional Notes:"
           },
           "requirements_ru": null
         },
         {
           "platform": {
             "id": 18,
             "name": "PlayStation 4",
             "slug": "playstation4",
             "image": null,
             "year_end": null,
             "year_start": null,
             "games_count": 6735,
             "image_background": "https://media.rawg.io/media/games/562/562553814dd54e001a541e4ee83a591c.jpg"
           },
           "released_at": "2013-09-17",
           "requirements_en": null,
           "requirements_ru": null
         },
         {
           "platform": {
             "id": 16,
             "name": "PlayStation 3",
             "slug": "playstation3",
             "image": null,
             "year_end": null,
             "year_start": null,
             "games_count": 3164,
             "image_background": "https://media.rawg.io/media/games/20a/20aa03a10cda45239fe22d035c0ebe64.jpg"
           },
           "released_at": "2013-09-17",
           "requirements_en": null,
           "requirements_ru": null
         },
         {
           "platform": {
             "id": 14,
             "name": "Xbox 360",
             "slug": "xbox360",
             "image": null,
             "year_end": null,
             "year_start": null,
             "games_count": 2788,
             "image_background": "https://media.rawg.io/media/games/942/9424d6bb763dc38d9378b488603c87fa.jpg"
           },
           "released_at": "2013-09-17",
           "requirements_en": null,
           "requirements_ru": null
         },
         {
           "platform": {
             "id": 1,
             "name": "Xbox One",
             "slug": "xbox-one",
             "image": null,
             "year_end": null,
             "year_start": null,
             "games_count": 5563,
             "image_background": "https://media.rawg.io/media/games/9fa/9fa63622543e5d4f6d99aa9d73b043de.jpg"
           },
           "released_at": "2013-09-17",
           "requirements_en": null,
           "requirements_ru": null
         }
       ],
       "parent_platforms": [
         {
           "platform": {
             "id": 1,
             "name": "PC",
             "slug": "pc"
           }
         },
         {
           "platform": {
             "id": 2,
             "name": "PlayStation",
             "slug": "playstation"
           }
         },
         {
           "platform": {
             "id": 3,
             "name": "Xbox",
             "slug": "xbox"
           }
         }
       ],
       "genres": [
         {
           "id": 4,
           "name": "Action",
           "slug": "action",
           "games_count": 176575,
           "image_background": "https://media.rawg.io/media/games/7cf/7cfc9220b401b7a300e409e539c9afd5.jpg"
         },
         {
           "id": 3,
           "name": "Adventure",
           "slug": "adventure",
           "games_count": 136287,
           "image_background": "https://media.rawg.io/media/games/48c/48cb04ca483be865e3a83119c94e6097.jpg"
         }
       ],
       "stores": [
         {
           "id": 290375,
           "store": {
             "id": 3,
             "name": "PlayStation Store",
             "slug": "playstation-store",
             "domain": "store.playstation.com",
             "games_count": 7858,
             "image_background": "https://media.rawg.io/media/games/4a0/4a0a1316102366260e6f38fd2a9cfdce.jpg"
           }
         },
         {
           "id": 438095,
           "store": {
             "id": 11,
             "name": "Epic Games",
             "slug": "epic-games",
             "domain": "epicgames.com",
             "games_count": 1288,
             "image_background": "https://media.rawg.io/media/games/16b/16b1b7b36e2042d1128d5a3e852b3b2f.jpg"
           }
         },
         {
           "id": 290376,
           "store": {
             "id": 1,
             "name": "Steam",
             "slug": "steam",
             "domain": "store.steampowered.com",
             "games_count": 85029,
             "image_background": "https://media.rawg.io/media/games/b8c/b8c243eaa0fbac8115e0cdccac3f91dc.jpg"
           }
         },
         {
           "id": 290377,
           "store": {
             "id": 7,
             "name": "Xbox 360 Store",
             "slug": "xbox360",
             "domain": "marketplace.xbox.com",
             "games_count": 1912,
             "image_background": "https://media.rawg.io/media/games/bc0/bc06a29ceac58652b684deefe7d56099.jpg"
           }
         },
         {
           "id": 290378,
           "store": {
             "id": 2,
             "name": "Xbox Store",
             "slug": "xbox-store",
             "domain": "microsoft.com",
             "games_count": 4773,
             "image_background": "https://media.rawg.io/media/games/157/15742f2f67eacff546738e1ab5c19d20.jpg"
           }
         }
       ],
       "clip": null,
       "tags": [
         {
           "id": 31,
           "name": "Singleplayer",
           "slug": "singleplayer",
           "language": "eng",
           "games_count": 214418,
           "image_background": "https://media.rawg.io/media/games/bc0/bc06a29ceac58652b684deefe7d56099.jpg"
         },
         {
           "id": 40847,
           "name": "Steam Achievements",
           "slug": "steam-achievements",
           "language": "eng",
           "games_count": 34255,
           "image_background": "https://media.rawg.io/media/games/d1a/d1a2e99ade53494c6330a0ed945fe823.jpg"
         },
         {
           "id": 7,
           "name": "Multiplayer",
           "slug": "multiplayer",
           "language": "eng",
           "games_count": 36484,
           "image_background": "https://media.rawg.io/media/games/b49/b4912b5dbfc7ed8927b65f05b8507f6c.jpg"
         },
         {
           "id": 40836,
           "name": "Full controller support",
           "slug": "full-controller-support",
           "language": "eng",
           "games_count": 16042,
           "image_background": "https://media.rawg.io/media/games/618/618c2031a07bbff6b4f611f10b6bcdbc.jpg"
         },
         {
           "id": 13,
           "name": "Atmospheric",
           "slug": "atmospheric",
           "language": "eng",
           "games_count": 31218,
           "image_background": "https://media.rawg.io/media/games/49c/49c3dfa4ce2f6f140cc4825868e858cb.jpg"
         },
         {
           "id": 42,
           "name": "Great Soundtrack",
           "slug": "great-soundtrack",
           "language": "eng",
           "games_count": 3375,
           "image_background": "https://media.rawg.io/media/games/7cf/7cfc9220b401b7a300e409e539c9afd5.jpg"
         },
         {
           "id": 24,
           "name": "RPG",
           "slug": "rpg",
           "language": "eng",
           "games_count": 19032,
           "image_background": "https://media.rawg.io/media/games/d69/d69810315bd7e226ea2d21f9156af629.jpg"
         },
         {
           "id": 18,
           "name": "Co-op",
           "slug": "co-op",
           "language": "eng",
           "games_count": 10691,
           "image_background": "https://media.rawg.io/media/games/48c/48cb04ca483be865e3a83119c94e6097.jpg"
         },
         {
           "id": 36,
           "name": "Open World",
           "slug": "open-world",
           "language": "eng",
           "games_count": 6856,
           "image_background": "https://media.rawg.io/media/games/d82/d82990b9c67ba0d2d09d4e6fa88885a7.jpg"
         },
         {
           "id": 411,
           "name": "cooperative",
           "slug": "cooperative",
           "language": "eng",
           "games_count": 4519,
           "image_background": "https://media.rawg.io/media/games/da1/da1b267764d77221f07a4386b6548e5a.jpg"
         },
         {
           "id": 8,
           "name": "First-Person",
           "slug": "first-person",
           "language": "eng",
           "games_count": 29942,
           "image_background": "https://media.rawg.io/media/games/7fa/7fa0b586293c5861ee32490e953a4996.jpg"
         },
         {
           "id": 149,
           "name": "Third Person",
           "slug": "third-person",
           "language": "eng",
           "games_count": 10393,
           "image_background": "https://media.rawg.io/media/games/d1a/d1a2e99ade53494c6330a0ed945fe823.jpg"
         },
         {
           "id": 4,
           "name": "Funny",
           "slug": "funny",
           "language": "eng",
           "games_count": 23627,
           "image_background": "https://media.rawg.io/media/games/960/960b601d9541cec776c5fa42a00bf6c4.jpg"
         },
         {
           "id": 37,
           "name": "Sandbox",
           "slug": "sandbox",
           "language": "eng",
           "games_count": 6377,
           "image_background": "https://media.rawg.io/media/games/310/3106b0e012271c5ffb16497b070be739.jpg"
         },
         {
           "id": 123,
           "name": "Comedy",
           "slug": "comedy",
           "language": "eng",
           "games_count": 11623,
           "image_background": "https://media.rawg.io/media/screenshots/f2f/f2f3c93d6153da7aee590f3ab8ccd803.jpg"
         },
         {
           "id": 150,
           "name": "Third-Person Shooter",
           "slug": "third-person-shooter",
           "language": "eng",
           "games_count": 3137,
           "image_background": "https://media.rawg.io/media/games/974/974342a3959981a17bdbbff2fd7f97b0.jpg"
         },
         {
           "id": 62,
           "name": "Moddable",
           "slug": "moddable",
           "language": "eng",
           "games_count": 849,
           "image_background": "https://media.rawg.io/media/games/48e/48e63bbddeddbe9ba81942772b156664.jpg"
         },
         {
           "id": 144,
           "name": "Crime",
           "slug": "crime",
           "language": "eng",
           "games_count": 2668,
           "image_background": "https://media.rawg.io/media/games/9e5/9e5b274c7e3aa5e30beba31b834b0e7e.jpg"
         },
         {
           "id": 62349,
           "name": "vr mod",
           "slug": "vr-mod",
           "language": "eng",
           "games_count": 17,
           "image_background": "https://media.rawg.io/media/screenshots/1bb/1bb3f78f0fe43b5d5ca2f3da5b638840.jpg"
         }
       ],
       "esrb_rating": {
         "id": 4,
         "name": "Mature",
         "slug": "mature"
       },
       "short_screenshots": [
         {
           "id": -1,
           "image": "https://media.rawg.io/media/games/20a/20aa03a10cda45239fe22d035c0ebe64.jpg"
         },
         {
           "id": 1827221,
           "image": "https://media.rawg.io/media/screenshots/a7c/a7c43871a54bed6573a6a429451564ef.jpg"
         },
         {
           "id": 1827222,
           "image": "https://media.rawg.io/media/screenshots/cf4/cf4367daf6a1e33684bf19adb02d16d6.jpg"
         },
         {
           "id": 1827223,
           "image": "https://media.rawg.io/media/screenshots/f95/f9518b1d99210c0cae21fc09e95b4e31.jpg"
         },
         {
           "id": 1827225,
           "image": "https://media.rawg.io/media/screenshots/a5c/a5c95ea539c87d5f538763e16e18fb99.jpg"
         },
         {
           "id": 1827226,
           "image": "https://media.rawg.io/media/screenshots/a7e/a7e990bc574f4d34e03b5926361d1ee7.jpg"
         },
         {
           "id": 1827227,
           "image": "https://media.rawg.io/media/screenshots/592/592e2501d8734b802b2a34fee2df59fa.jpg"
         }
       ]
     }
   ]
   }